{
	"Name":"Hardware",
	"Description":"[p]What kind of hardware went into making this kiosk?[/p]",
	"Discussion":{
		"Basic":"[p]This is a basic explainer of open hardware.  3D printing was also used to make the case, which is a combination of open source software and open hardware.[/p]",
		"Advanced":"[p]This is a more indepth explainer of the filament used; PLA and TPU.  They are biodegradable.   We use parts provided primarily by Raspberry Pi and Adafruit.[/p]"
	}
}