{
	"Name":"Software",
	"Description":"[p]What kind of programs were used to make this kiosk?[/p]",
	"Discussion":{
		"Basic":"[p]This is a basic explainer of open-source technologies and Unix.  This is a distribution of Linux.[/p]",
		"Advanced":"[p]This is a more indepth explainer of DietPi, Debian, Linux and the software used in the operating system.  Also talk about how PHP is used to call system level functions and run Python scripts.[/p]"
	}
}