{
	"Name":"Tile Buckets",
	"Enabled":true,
	"Initialize":{
		"Script":"TileBuckets.js",
		"Function":"loadTileBuckets",
		"Template":"default"
	},
	"Configuration":{
		"Icon":"Default.svg",
		"Description":"[p]This activity allows tiles to be sorted into buckets.[/p]"
	}
}