{
	"Name":"Facilitation",
	"Enabled":true,
	"Facilitator":true,
	"Initialize":{
		"Script":"Facilitation.js",
		"Function":"loadFacilitationMenu",
		"Template":"default"
	},
	"Configuration":{
		"Icon":"Facilitation.svg",
		"Description":"[p]This menu gives access to resources for facilitating live events.[/p]"
	}
}