{
	"Big Ideas":[
		"Open-source technologies improve access to materials surrounding your exhibit."
	],
	"Objectives":[
		"Find an appropriate location for the kiosk.",
		"Explore Facilitator mode and get acquainted with the interface.",
		"Navigate Activities and select which ones to display for your exhibit.",
		"Learn about the different settings and accessibility options on the Kiosk.",
		"Put the kiosk into Exhibit Mode."
	],
	"Introductions":{
		"1":"Introduction to CLIO and the team."
	},
	"Instructions":"[p]Instructions to get the kiosk up and running.  Explain questions using the discussions.[/p]"
}