{
	"Name":"Timeline",
	"Enabled":true,
	"Initialize":{
		"Script":"Timeline.js",
		"Function":"loadTimeline",
		"Template":"default"
	},
	"Configuration":{
		"Icon":"Default.svg",
		"Description":"[p]This activity allows users to move through a timeline with each slide containing an image and rich text.  The timescale, number of dates, and date format are all customizable, allowing for the creation of micro or macro scale timelines.[/p]",
		"Help":"Navigate through each slide of the timeline using the bar along the bottom of the screen."
	}
}