{	
	"Activity":{
		"Type":"VideoPlayback",
		"Audience":"newbie",
		"Grouping":{
			"Section":"RWNH",
			"Exhibit":"Solar System"
		},
		"Configuration":{
			"Hidden":"true",
			"Theme":"default",
			"Accessibility":"false",
			"Subheader":"false"
		},
		"Info":{
			"Title":"Life on Titan",
			"Preview":"milkyway.jpg",
			"Description": "Learn more about the possibility of life on Titan.",
			"Video":""
		}
	},
	"Content":{
			"1":{
				"Video":"4_lifeontitan.mp4",
				"Title":"Life On Titan",
				"IncludeAudio":"false"
			}
		
	}
}