{	
	"Activity":{
		"Type":"Meta",
		"Audience":"newbie",
		"Grouping":{
			"Section":"RWNH",
			"Exhibit":"Habitable Worlds"
		},
		"Configuration":{
			"Hidden":"false",
			"Theme":"default",
			"Accessibility":"true",
			"Subheader":"false"
		},
		"Info":{
			"Title":"Our Solar System",
			"Preview":"milkyway.jpg",
			"Description": "Learn more about where life could be found, right at home within our solar system.",
			"Video":""
		}
	},
	"Content":{
			"1":{
				"Preview":"milkyway.jpg",
				"Program":"HabitableWorlds",
				"Activity":"lifeonmars",
				"Description":""
			},
			"2":{
				"Preview":"milkyway.jpg",
				"Program":"HabitableWorlds",
				"Activity":"lifeontitan",
				"Description":""
			},
			"3":{
				"Preview":"milkyway.jpg",
				"Program":"HabitableWorlds",
				"Activity":"lifeoneuropa",
				"Description":""
			},
			"4":{
				"Preview":"milkyway.jpg",
				"Program":"HabitableWorlds",
				"Activity":"lifeonenceladus",
				"Description":""
			}
		
	}
}