{
	"Institution":"Roger Williams Natural History Museum",
	"Program":"Habitable Worlds",
	"Description":"Does life exist anywhere else in our Solar System or galaxy? Could one of the newly discovered exoplanets be habitable?",
	"About":"Discover some of the extreme places where life lives on Earth, explore other places where life might exist in our Solar System and study the planets being discovered around other stars.",
	"DefaultMenu":"Exhibit"
}