{	
	"Activity":{
		"Type":"Timeline",
		"Audience":"Community",
		"Grouping":{
			"Section":"CLIO",
			"Exhibit":"Examples"
		},
		"Configuration":{
			"Hidden":"false",
			"Theme":"animal",
			"Accessibility":"true",
			"Subheader":"false"
		},
		"Info":{
			"Title":"Deep Time",
			"Preview":"wecametothereach/1.jpg",
			"Description":"Delve deep into geological time.",
			"Video":""
		}	
	},
	"Content":{
			"Configuration":{
				"Date Width":"300"
			},
			"Dates":{
				
				"4.6BYA":{
					"Image":"geological/archean.png",
					"Content":"[h3]4.6 Billon Years Ago[/h3][h4]Archean[/h4][p]During the Archean, the Earth's crust had cooled enough to allow the formation of continents and life began its development.[/p]"
				},
				"2.5BYA":{
					"Image":"geological/proterozoic.jpg",
					"Content":"[h3]2.5 Billon Years Ago[/h3][h4]Proterozoic[/h4][p]This eon spans the time from the appearance of oxygen in Earth's atmosphere to just before the proliferation of complex life on the Earth.[/p]"
				},
				"540MYA":{
					"Image":"",
					"Content":"[h3]540 Million Years Ago[/h3][h4]Paleozoic[/h4][p]Lorem Ipsum.[/p]"
				},
				"250MYA":{
					"Image":"",
					"Content":"[h3]250 Million Years Ago[/h3][h4]Mesozoic[/h4][p]Lorem Ipsum.[/p]"
				},
				"65MYA":{
					"Image":"",
					"Content":"[h3]65 Million Years Ago[/h3][h4]Cenozoic[/h4][p]Lorem Ipsum.[/p]"
				}
			}
			
		
	}
}