{	
	"Activity":{
		"Type":"CollectionGalleries",
		"Audience":"Community",
		"Grouping":{
			"Section":"CLIO",
			"Exhibit":"Examples"
		},
		"Configuration":{
			"Hidden":"false",
			"Theme":"default",
			"Accessibility":"true",
			"Subheader":"false"
		},
		"Info":{
			"Title":"Ancient Fish",
			"Preview":"pleistocene/salmon1.jpg",
			"Description":"Take a look at different fish specimens we have in our paleontology collection.",
			"Video":""
		}	
	},
	"Content":{
			
			"1":{
				"Title":"Pleistocene Salmon",
				"Subtitle":"Paleontology",
				"Description":"This salmon speciman is from the pleistocene.",
				"Images":{
					"1":{
						"Image":"pleistocene/salmon1.jpg",
						"Caption":"This is the complete pleistocene salmon specimen."
					},
					"2":{
						"Image":"pleistocene/salmon2.jpg",
						"Caption":"This is part of the salmon specimen."
					},
					"3":{
						"Image":"pleistocene/salmon3.jpg",
						"Caption":"This is a part of the salmon specimen."
					}
				}
			}
		
			
	}
}