{	
	"Activity":{
		"Type":"RenderObject",
		"Audience":"Community",
		"Grouping":{
			"Section":"3D Render",
			"Exhibit":"Materials"
		},
		"Configuration":{
			"Hidden":"false",
			"Theme":"default",
			"Accessibility":"true",
			"Subheader":"false"
		},
		"Info":{
			"Title":"Wireframe",
			"Preview":"",
			"Description":"View the different 3D render material types.",
			"Video":""
		}	
	},
	"Content":{
		
		
			"Object":"benchy/3DBenchy.obj",
			"Configuration":{
				"Rotation":{
					"X":"0",
					"Y":"0",
					"Z":"0"
				},
				"Controls":{
					"EnableRotate":false,
					"EnableZoom":false,
					"EnablePan":false
				},
				"Lighting":{
					"Ambient":true,
					"Key":true,
					"Fill":false,
					"Back":false,
					"Spot":false
				},
				"AutoRotate":true,
				"Restrict Camera":true,
				"Background Color":"#5f4a8b",
				"Object Color":"#e69a8d",
				"Scale":"80",
				"Material":"wireframe"
			},
			"Title":"Wireframe",
			"Description":"[p]This material shows only the lines and vertices of an object.[/p]"
		
		
	}
}