{	
	"Activity":{
		"Type":"ImageComparison",
		"Audience":"Community",
		"Grouping":{
			"Section":"CLIO",
			"Exhibit":"Examples"
		},
		"Configuration":{
			"Hidden":"false",
			"Theme":"air",
			"Accessibility":"true",
			"Subheader":"false"
		},
		"Info":{
			"Title":"X-ray Vision",
			"Preview":"catanatomy/vector.png",
			"Description":"Glance inside a cat and see its skeleton.",
			"Video":""
		}	
	},
	"Content":{
		"Configuration":{
			"Start Position":"0.05",
			"Images":{
				"Under":{
					"Image":"catanatomy/vector.png"
				},
				"Over":{
					"Image":"catanatomy/skeleton.png"
				}
			}
			
		},
		"References":{
			"Configuration":{
				"Toggleable":false,
				"Fixed":true,
				"Invisible":false
			},
			"Tooltips":{
				
			}
			

		}

	}
		
}