{
	"Name":"Pathfinder",
	"Enabled":true,
	"Initialize":{
		"Script":"PathFinder.js",
		"Function":"loadPathFinder",
		"Template":"default"
	},
	"Configuration":{
		"Icon":"Default.svg",
		"Description":"[p]Find a path through a series of multiple choice questions.[/p]",
		"Help":"Explore your options before answering each question.  See if you can make it to the end."
	}
}