{	
	"Activity":{
		"Type":"CardMatch",
		"Audience":"Online",
		"Grouping":{
			"Section":"Nature in the Classroom",
			"Exhibit":"Bird Diversity"
		},
		"Configuration":{
			"Hidden":"true",
			"Theme":"slater",
			"Accessibility":"true",
			"Subheader":"false"
		},
		"Info":{
			"Title":"Incisors",
			"Preview":"placeholder.png",
			"Description": "Learn more about incisors.",
			"Video":""
		}		
	},
	"Content":{
			"Configuration":{
				"ShowTitle":{
					"Right":true,
					"Left":true
				},
				"Prompt":{
					"First":"Choose an Animal",
					"Second":"What is this tooth best adapted to?"
				}
			},
			"Title":{
				"Left":"Animal Teeth",
				"Right":"Environments and Activities"
			},
			"Cards":{
				"Left":{
					"left1":{
						"Title":"Animal 1",
						"Content":"This is a test description.",
						"Background":""
					},
					"left2":{
						"Title":"Animal 2",
						"Content":"This is a test description.",
						"Background":""
					},
					"left3":{
						"Title":"Animal 3",
						"Content":"This is a test description.",
						"Background":""
					},
					"left4":{
						"Title":"Animal 4",
						"Content":"This is a test description.",
						"Background":""
					},
					"left5":{
						"Title":"Animal 5",
						"Content":"This is a test description.",
						"Background":""
					},
					"left6":{
						"Title":"Animal 6",
						"Content":"This is a test description.",
						"Background":""
					}
				},
				"Right":{
				
					"right1":{
						"Title":"Activity 1",
						"Content":"This is a test description.",
						"Background":""
					},
					"right2":{
						"Title":"Activity 2",
						"Content":"This is a test description.",
						"Background":""
					},
					"right3":{
						"Title":"Activity 3",
						"Content":"This is a test description.",
						"Background":""
					},
					"right4":{
						"Title":"Activity 4",
						"Content":"This is a test description.",
						"Background":""
					},
					"right5":{
						"Title":"Activity 5",
						"Content":"This is a test description.",
						"Background":""
					},
					"right6":{
						"Title":"Activity 6",
						"Content":"This is a test description.",
						"Background":""
					}
				}
			},
			"Answer":{
				"1":{
					"Pair":["left1","right1"],
					"Correct":"[p]That’s correct.[/p]",
					"Incorrect":"[p]That's incorrect.[/p]"
				},
				"2":{
					"Pair":["left2","right2"],
					"Correct":"[p]That’s correct.[/p]",
					"Incorrect":"[p]That's incorrect.[/p]"
				},
				"3":{
					"Pair":["left3","right3"],
					"Correct":"[p]That’s correct.[/p]",
					"Incorrect":"[p]That's incorrect.[/p]"
				},
				"4":{
					"Pair":["left4","right4"],
					"Correct":"[p]That’s correct.[/p]",
					"Incorrect":"[p]That's incorrect.[/p]"
				},
				"5":{
					"Pair":["left5","right5"],
					"Correct":"[p]That’s correct.[/p]",
					"Incorrect":"[p]That's incorrect.[/p]"
				},
				"6":{
					"Pair":["left6","right6"],
					"Correct":"[p]That’s correct.[/p]",
					"Incorrect":"[p]That's incorrect.[/p]"
				}
			}
		}
}