{	
	"Activity":{
		"Type":"CardMatch",
		"Audience":"Online",
		"Grouping":{
			"Section":"Nature in the Classroom",
			"Exhibit":"Bird Diversity"
		},
		"Configuration":{
			"Hidden":"true",
			"Theme":"slater",
			"Accessibility":"true",
			"Subheader":"false"
		},
		"Info":{
			"Title":"Beaks",
			"Preview":"placeholder.png",
			"Description": "Match the beaks shown with their uses. Not all beaks fit neatly into the tool categories shown here.  Some look like one tool but are used like another, and some beaks have multiple uses. The best way to find out how a bird uses its beak is to watch it!",
			"Video":""
		}		
	},
	"Content":{

			"Configuration":{
				"ShowTitle":{
					"Left":false,
					"Right":false
				},
				"Prompt":{
					"First":"Choose a Food",
					"Second":"What beak is best adapted to eat this?"
				}
			},
			"Title":{
				"Right":"Type of Beak",
				"Left":"Food"
			},
			"Cards":{
				
				"Left":{
					"left1":{
						"Title":"Small Aquatic Plants",
						"Content":"",
						"Background":"beaksandfeet/duckweed.jpg"
					},
					"left2":{
						"Title":"Small Mammals",
						"Content":"",
						"Background":"beaksandfeet/DouglasSquirrel.jpg"
					},
					"left3":{
						"Title":"Seeds and Grain",
						"Content":"",
						"Background":"beaksandfeet/birdseed.jpg"
					},
					"left4":{
						"Title":"Insects",
						"Content":"",
						"Background":"beaksandfeet/LHBeetle_Descouens.jpg"
					},
					"left5":{
						"Title":"Nectar",
						"Content":"",
						"Background":"beaksandfeet/Ribes.jpg"
					},
					"left6":{
						"Title":"Fish",
						"Content":"",
						"Background":"beaksandfeet/fish_Fangusu.jpg"
					}
				},

				"Right":{
				
					"right1":{
						"Title":"Strainer",
						"Content":"Wide and flat; has ridges along inner edges.",
						"Background":"beaksandfeet/DuckFilter_Friedt.jpg"
					},
					"right2":{
						"Title":"Shredder",
						"Content":"Top of beak hooks sharply down over the bottom; very sharp.",
						"Background":"beaksandfeet/CHbeak.jpg"
					},
					"right3":{
						"Title":"Crusher",
						"Content":"Strong, short and thick; conical shape.",
						"Background":"beaksandfeet/HFbeak.jpg"
					},
					"right4":{
						"Title":"Tweezers",
						"Content":"Long and narrow, but strong.",
						"Background":"beaksandfeet/PWrenbeak.jpg"
					},
					"right5":{
						"Title":"Probe",
						"Content":"Very strong, slender beak.",
						"Background":"beaksandfeet/AHbeak.jpg"
					},
					"right6":{
						"Title":"Spear",
						"Content":"Thick, long and very sharp.",
						"Background":"beaksandfeet/BKbeak.jpg"
					}
				}
			},
			
			"Answer":{
				"1":{
					"Pair":["left1","right1"],
					"Correct":"[p]Nice work! A duck’s “strainer” beak is wide, flat, and has inner ridges. This allows it to filter out water/mud and trap tiny plants and animals in its beak.[/p]",
					"Incorrect":"[p]Can you imagine trying to take a bite of underwater plants? What lets water through but keeps food in?[/p]"
				},
				"2":{
					"Pair":["left2","right2"],
					"Correct":"[p]Great! A sharp “shredder” beak is helpful to meat-eating birds. This allows them tear their meals into smaller pieces.[/p]",
					"Incorrect":"[p]This is a kind of food that needs to be [i]torn into smaller pieces[/i]. Think back to the bird diversity exercise--what kind of bird eats small mammals?[/p]"
				},
				"3":{
					"Pair":["left3","right3"],
					"Correct":"[p]Nice job. This beak shape allows finches to crush the nuts and seeds they eat. In some species, their bite compared to their body size is more powerful than that of a T-rex![/p]",
					"Incorrect":"[p]Seed shells can be tough to break open. Which of the beaks look strong enough to deliver enough force?[/p]"
				},
				"4":{
					"Pair":["left4","right4"],
					"Correct":"[p]That’s right, tweezer beaks are very useful for quickly and carefully catching small insects.[/p]",
					"Incorrect":"[p]While a lot of birds with differently shaped beaks eat insects; the beak you chose might be better suited for another food type in this activity. What’s another good shape that might be good at picking up very small things like insects?[/p]"
				},
				"5":{
					"Pair":["left5","right5"],
					"Correct":"[p]Awesome! A hummingbird’s beak is extremely well suited for protecting the bird’s long tongue and allowing it to sip on nectar in flowers.[/p]",
					"Incorrect":"[p]The length and width of the beak is important--it must reach all the way down to where nectar is located in a flower. Which of the other beaks do you think would fit best in the tiny space of a flower like this one?[/p]"
				},
				"6":{
					"Pair":["left6","right6"],
					"Correct":"[p]Great! While the shape of this beak closely resembles a spear, most birds with this beak don’t actually use it like one. Instead, the shape makes it easy for birds to dive their heads in the water to quickly catch fish between their bills.[/p]",
					"Incorrect":"[p]There is another beak type that might be a better fit for this diet. What size beak would a bird need to catch something the size and length of a fish?[/p]"
				}
			}
	}
}