{	
	"Activity":{
		"Type":"CardMatch",
		"Audience":"Online",
		"Grouping":{
			"Section":"Nature in the Classroom",
			"Exhibit":"Bird Diversity"
		},
		"Configuration":{
			"Hidden":"true",
			"Theme":"slater",
			"Accessibility":"true",
			"Subheader":"false"
		},
		"Info":{
			"Title":"Feet",
			"Preview":"placeholder.png",
			"Description": "Match the feet shown with their uses. Not all bird feet fit into a category shown here, and some birds have feet with multiple uses. The best way to find out how a bird uses its feet is to watch it!",
			"Video":""
		}		
	},
	"Content":{
			"Configuration":{
				"ShowTitle":{
					"Left":false,
					"Right":false
				},
				"Prompt":{
					"First":"Choose an Environment or Activity",
					"Second":"What foot would is best adapted to this?"
				}
			},
			"Title":{
				"Right":"Type of Feet",
				"Left":"Environments and Activities"
			},
			"Cards":{
				"Right":{
					"right1":{
						"Title":"Walkers",
						"Content":"Foot has widespread toes; feet are larger than clingers.",
						"Background":"beaksandfeet/ESfeet.jpg"
					},
					"right2":{
						"Title":"Clingers",
						"Content":"Foot has narrow and slightly curved toes that are small but strong.",
						"Background":"beaksandfeet/DEJfeet.jpg"
					},
					"right3":{
						"Title":"Paddles",
						"Content":"Foot has webbed skin between each toe or partial webbing (lobes) on each toe.",
						"Background":"beaksandfeet/GWGfeet.jpg"
					},
					"right4":{
						"Title":"Vice-Grips",
						"Content":"Strong, muscular toes have long, sharp claws (talons).",
						"Background":"beaksandfeet/RTHfeet.jpg"
					},
					"right5":{
						"Title":"Climbers",
						"Content":"Foot has two toes facing frontward and two toes facing backward (this is called zygodactyly).",
						"Background":"beaksandfeet/Climber_BarretteCephas.jpg"
					},
					"right6":{
						"Title":"Long Toes",
						"Content":"Long and skinny legs with long, widespread toes.",
						"Background":"beaksandfeet/GHfeet.jpg"
					}
				},
				"Left":{
				
					"left1":{
						"Title":"Flat Surfaces",
						"Content":"",
						"Background":"beaksandfeet/NisquallyTrail.jpg"
					},
					"left2":{
						"Title":"Small Branches",
						"Content":"",
						"Background":"beaksandfeet/branch_Uliana.jpg"
					},
					"left3":{
						"Title":"Water",
						"Content":"",
						"Background":"beaksandfeet/PugetSound_Symi81.jpg"
					},
					"left4":{
						"Title":"Catching Prey",
						"Content":"",
						"Background":"beaksandfeet/PTFrog.jpg"
					},
					"left5":{
						"Title":"Tree Trunks",
						"Content":"",
						"Background":"beaksandfeet/treebark.jpg"
					},
					"left6":{
						"Title":"Squishy Ground",
						"Content":"",
						"Background":"beaksandfeet/ThelerWetlands.jpg"
					}
				}
			},
			"Answer":{
				"1":{
					"Pair":["left1","right1"],
					"Correct":"[p]That’s correct. Walker feet are most useful for habitats where a bird might spend a lot of time walking or hopping on the ground.[/p]",
					"Incorrect":"[p]While all birds will encounter these kinds of surfaces, try to think about which foot shape is stable enough to help a bird walk and run.[/p]"
				},
				"2":{
					"Pair":["left2","right2"],
					"Correct":"[p]Great job! Birds with clinger feet are able to hang on to small branches as they eat and hop from branch to branch.[/p]",
					"Incorrect":"[p]While many birds spend time on branches and trees, there is another foot type that is a better fit. What size bird do you think can perch on small branches or plant stems?[/p]"
				},
				"3":{
					"Pair":["left3","right3"],
					"Correct":"[p]Nice work. Webbed feet work like paddles to help birds swim quickly and easily.[/p]",
					"Incorrect":"[p]Think about what shape would help a bird swim. What kinds of tools do people use to help them swim? Are there any similar shapes of feet?[/p]"
				},
				"4":{
					"Pair":["left4","right4"],
					"Correct":"[p]Exactly! Birds of prey need strong, curved claws with sharp talons to help them catch and eat their food.[/p]",
					"Incorrect":"[p]What kind of feet would help a bird hang onto prey? Think about the beak shape needed to catch and eat small animals.[/p]"
				},
				"5":{
					"Pair":["left5","right5"],
					"Correct":"[p]That’s right! The opposite facing toes on climbing feet are necessary for the grip needed to hang onto tree bark.[/p]",
					"Incorrect":"[p]Hint: The toe arrangement is a very important part of what helps a bird easily navigate vertical surfaces like tree trunks.[/p]"
				},
				"6":{
					"Pair":["left6","right6"],
					"Correct":"[p]Nice work. Long toes spread out a bird’s weight and help keep it from sinking into soft ground like mud.[/p]",
					"Incorrect":"[p]There’s another type of foot that works better here. Birds that spend a lot of time here don’t necessarily swim in the water, but still need a way to not sink into soft ground.[/p]"
				}
			}
	}
}