{	
	"Activity":{
		"Type":"AnnotatedImage",
		"Audience":"Online",
		"Grouping":{
			"Section":"Nature in the Classroom",
			"Exhibit":"Bird Diversity"
		},
		"Configuration":{
			"Hidden":"true",
			"Theme":"slater",
			"Accessibility":"true",
			"Subheader":"false"
		},
		"Info":{
			"Title":"Specimen A1",
			"Preview":"specimen/A1_NorthernFlicker/Background.png",
			"Description": "Specimen A1",
			"Video":""
		}		
	},
	"Content":{
		"Configuration":{
			"Start Position":"0.5",
			"ScaleToFit":"true",
			"Image":{
				"Source":"specimen/A1_NorthernFlicker/Background.png",
				"Header":"Specimen A1",
				"Description":"This is Specimen A1.",
				"Dimensions":{
					"Height":720,
					"Width": 1280
				}
			}
			
		},
		"References":{
			"Configuration":{
				"Toggleable":false,
				"Fixed":false,
				"Invisible":false
			},
			"Tooltips":{
				
				"1":{
					"Geometry":{
						"Position":{
							"x":"140",
							"y":"420"
						},
						"Radius":40
					},
					"Title":"Beak",
					"Icon":{
						"Image":"icons/zoom_in-white.svg",
						"Scale":"65px"
					},
					"Content":{
						"Type":"Gallery",
						"Data":[{
							"src": "specimen/A1_NorthernFlicker/Head_Dorsal.jpg",
							"caption": ""
						},{
							"src": "specimen/A1_NorthernFlicker/Head_Profile.jpg",
							"caption": ""
						},{
							"src": "specimen/A1_NorthernFlicker/Head_Ventral.jpg",
							"caption": ""
						}]
					}
				},

				"2":{
					"Geometry":{
						"Position":{
							"x":"510",
							"y":"420"
						},
						"Radius":40
					},
					"Title":"Full Specimen",
					"Icon":{
						"Image":"icons/zoom_in-white.svg",
						"Scale":"65px"
					},
					"Content":{
						"Type":"Gallery",
						"Data":[{
							"src": "specimen/A1_NorthernFlicker/FullBody_Dorsal.jpg",
							"caption": ""
						},{
							"src": "specimen/A1_NorthernFlicker/FullBody_Profile.jpg",
							"caption": ""
						},{
							"src": "specimen/A1_NorthernFlicker/FullBody_Ventral.jpg",
							"caption": ""
						}]
					}
				},

				"3":{
					"Geometry":{
						"Position":{
							"x":"880",
							"y":"420"
						},
						"Radius":40
					},
					"Title":"Feet",
					"Icon":{
						"Image":"icons/zoom_in-white.svg",
						"Scale":"65px"
					},
					"Content":{
						"Type":"Gallery",
						"Data":[{
							"src": "specimen/A1_NorthernFlicker/Feet_Dorsal.jpg",
							"caption": ""
						},{
							"src": "specimen/A1_NorthernFlicker/Feet_Profile.jpg",
							"caption": ""
						},{
							"src": "specimen/A1_NorthernFlicker/Feet_Ventral.jpg",
							"caption": ""
						}]
					}
				}

			}

		}

	}
		
}