{
	"Big Ideas":[
		"Placeholder text."
	],
	"Objectives":[
		"Students will understand how to placehold text."
	],
	"Introductions":{
		"1":"Placeholder text."
	},
	"Instructions":"[p]Placeholder text.[/p]"
}