{
	"Name":"Placeholder",
	"Description":"[p]This is just a placeholder.[/p]",
	"Discussion":{
		"Basic":"[p]Here is some placeholder text.[/p]",
		"Advanced":"[p]Here is some more placeholder text.[/p]"
	}
}