{
	"Name":"Activities",
	"Description":"What are activities and how are they used by the kiosk?",
	"Discussion":{
		"Basic":"[p]This is a basic explainer of activities and the different types.[/p]",
		"Advanced":"[p]This is a more indepth explainer that the activities are all based in JavaScript, using the jQuery library.  This means that anything that is capable through JavaScript could be made into an activity on this kiosk.[/p]"
	}
}