{	
	"Activity":{
		"Type":"Slideshow",
		"Audience":"Visitor",
		"Grouping":{
			"Section":"Gallery",
			"Exhibit":"Artist Exhibition"
		},
		"Configuration":{
			"Hidden":"false",
			"Theme":"forest",
			"Accessibility":"true",
			"Subheader":"false"
		},
		"Info":{
			"Title":"Artist Biography",
			"Preview":"person_placeholder.jpg",
			"Description": "This slideshow will contain an artist biography and some selected works with interpretation.",
			"Video":""
		}	
	},
	"Content":{
		"Configuration":{
			"Transition":"none",
			"Background Transition":"none",
			"Loop":false
		},
		"Slides":{
			


			"0":{
				"Configuration":{
					"Background Color":"#cfe5b5",
					"Background Image":"person_placeholder.jpg",
					"Background Video":"",
					"Font Color":"white",
					"Title":{
						"X":"26%",
						"Y":"30%",
						"Size":"3"
					}
				},
				"Content":{
					
					"Title":"Artist Name",
					"Slide":"This is a really brief tag line.",
					"Sub Slides":{
						
					}
					
				}
			},



			"1":{
				"Configuration":{
					"Background Color":"#cfe5b5",
					"Background Image":"",
					"Background Video":"",
					"Font Color":"#00492c",
					"Title":{
						"X":"31%",
						"Y":"30%",
						"Size":"3"
					}
				},
				"Content":{
					
					"Title":"Overview",
					"Slide":"This is a really brief biography tag line.",
					"Sub Slides":{
						"1":{
							"Configuration":{
								"Background Color":"#cfe5b5",
								"Background Image":"",
								"Background Repeat":"",
								"Video Background":"",
								"Font Color":"#00492c"
							},
							"Content":"[p]This is a more in-depth artist description that can cover their basic biography.[/p]"
						},
						"2":{
							"Configuration":{
								"Background Color":"#cfe5b5",
								"Background Image":"",
								"Background Repeat":"",
								"Video Background":"",
								"Font Color":"#00492c"
							},
							"Content":"[p]Additional slides if needed.[/p]"
						}
					}
					
				}
			},



			"2":{
				"Configuration":{
					"Background Color":"#cfe5b5",
					"Background Image":"",
					"Background Video":"",
					"Font Color":"#00492c",
					"Title":{
						"X":"20%",
						"Y":"30%",
						"Size":"3"
					}
				},
				"Content":{
					
					"Title":"Selected Works",
					"Slide":"Brief description of their selected works.",
					"Sub Slides":{
						"1":{
							"Configuration":{
								"Background Color":"#cfe5b5",
								"Background Image":"",
								"Background Repeat":"",
								"Video Background":"",
								"Font Color":"#00492c"
							},
							"Content":"[p]This is a more in-depth description about their artistic style and themes.[/p]"
						},
						"2":{
							"Configuration":{
								"Background Color":"#cfe5b5",
								"Background Image":"",
								"Background Repeat":"",
								"Video Background":"",
								"Font Color":"#00492c"
							},
							"Content":"[p]Additional slides if needed.[/p]"
						}
					}
					
				}
			},



			"3":{
				"Configuration":{
					"Background Color":"#cfe5b5",
					"Background Image":"placeholder/1.jpg",
					"Background Video":"",
					"Font Color":"white",
					"Title":{
						"X":"5%",
						"Y":"90%",
						"Size":"3"
					}
				},
				"Content":{
					
					"Title":"Work 1",
					"Slide":"",
					"Sub Slides":{
						"1":{
							"Configuration":{
								"Background Color":"#cfe5b5",
								"Background Image":"",
								"Background Repeat":"",
								"Video Background":"",
								"Font Color":"#00492c"
							},
							"Content":"[p]This is a more in-depth description about this piece.[/p]"
						},
						"2":{
							"Configuration":{
								"Background Color":"#cfe5b5",
								"Background Image":"",
								"Background Repeat":"",
								"Video Background":"",
								"Font Color":"#00492c"
							},
							"Content":"[p]Additional slides if needed.[/p]"
						}
					}
					
				}
			},



			"4":{
				"Configuration":{
					"Background Color":"#cfe5b5",
					"Background Image":"placeholder/2.jpg",
					"Background Video":"",
					"Font Color":"white",
					"Title":{
						"X":"5%",
						"Y":"90%",
						"Size":"3"
					}
				},
				"Content":{
					
					"Title":"Work 2",
					"Slide":"",
					"Sub Slides":{
						"1":{
							"Configuration":{
								"Background Color":"#cfe5b5",
								"Background Image":"",
								"Background Repeat":"",
								"Video Background":"",
								"Font Color":"#00492c"
							},
							"Content":"[p]This is a more in-depth description about this piece.[/p]"
						},
						"2":{
							"Configuration":{
								"Background Color":"#cfe5b5",
								"Background Image":"",
								"Background Repeat":"",
								"Video Background":"",
								"Font Color":"#00492c"
							},
							"Content":"[p]Additional slides if needed.[/p]"
						}
					}
					
				}
			},



			"5":{
				"Configuration":{
					"Background Color":"#cfe5b5",
					"Background Image":"placeholder/3.jpg",
					"Background Video":"",
					"Font Color":"white",
					"Title":{
						"X":"5%",
						"Y":"90%",
						"Size":"3"
					}
				},
				"Content":{
					
					"Title":"Work 3",
					"Slide":"",
					"Sub Slides":{
						"1":{
							"Configuration":{
								"Background Color":"#cfe5b5",
								"Background Image":"",
								"Background Repeat":"",
								"Video Background":"",
								"Font Color":"#00492c"
							},
							"Content":"[p]This is a more in-depth description about this piece.[/p]"
						},
						"2":{
							"Configuration":{
								"Background Color":"#cfe5b5",
								"Background Image":"",
								"Background Repeat":"",
								"Video Background":"",
								"Font Color":"#00492c"
							},
							"Content":"[p]Additional slides if needed.[/p]"
						}
					}
					
				}
			}
















		}

	}
		
}