{	
	"Activity":{
		"Type":"AnnotatedImage",
		"Audience":"Visitor",
		"Grouping":{
			"Section":"Indigenous Arts Campus",
			"Exhibit":"Tour"
		},
		"Configuration":{
			"Hidden":"false",
			"Theme":"slater",
			"Accessibility":"true",
			"Subheader":"false"
		},
		"Info":{
			"Title":"Indigenous Arts Campus",
			"Preview":"campus/iac_aerial.jpeg",
			"Description": "Explore the Indigenous Arts Campus at Evergreen.",
			"Video":""
		}		
	},
	"Content":{
		"Configuration":{
			"Start Position":"0",
			"ScaleToFit":"true",
			"Image":{
				"Source":"campus/iac.png",
				"Header":"",
				"Description":"",
				"Dimensions":{
					"Height":420,
					"Width": 800
				}
			}
			
		},
		"References":{
			"Configuration":{
				"Toggleable":false,
				"Fixed":false,
				"Invisible":false
			},
			"Tooltips":{
				
				"1":{
					"Geometry":{
						"Position":{
							"x":"170",
							"y":"165"
						},
						"Radius":20
					},
					"Icon":{
						"Image":"icons/youarehere.svg",
						"Scale":"30px"
					},
					"Title":"Longhouse",
					"Content":{
						"Type":"Rich Text",
						"Data":"[p]This is a description of the Longhouse.[/p]"
					}
				},

				"2":{
					"Geometry":{
						"Position":{
							"x":"303",
							"y":"110"
						},
						"Radius":20
					},
					"Icon":{
						"Image":"icons/place.svg",
						"Scale":"30px"
					},
					"Title":"Fiber Art Studio",
					"Content":{
						"Type":"Rich Text",
						"Data":"[p]This is a description of the Fiber Art Studio.[/p]"
					}
				},

				"3":{
					"Geometry":{
						"Position":{
							"x":"392",
							"y":"126"
						},
						"Radius":20
					},
					"Icon":{
						"Image":"icons/place.svg",
						"Scale":"30px"
					},
					"Title":"Wood Carving Studio",
					"Content":{
						"Type":"Rich Text",
						"Data":"[p]This is a description of the Wood Carving Studio.[/p]"
					}
				},

				"4":{
					"Geometry":{
						"Position":{
							"x":"471",
							"y":"145"
						},
						"Radius":20
					},
					"Icon":{
						"Image":"icons/place.svg",
						"Scale":"30px"
					},
					"Title":"Glass Studio",
					"Content":{
						"Type":"Rich Text",
						"Data":"[p]This is a description of the Glass Studio.[/p]"
					}
				},

				"5":{
					"Geometry":{
						"Position":{
							"x":"293",
							"y":"221"
						},
						"Radius":20
					},
					"Icon":{
						"Image":"icons/grass.svg",
						"Scale":"30px"
					},
					"Title":"Gathering Space",
					"Content":{
						"Type":"Rich Text",
						"Data":"[p]This is a description of the Gathering Space.[/p]"
					}
				},

				"6":{
					"Geometry":{
						"Position":{
							"x":"378",
							"y":"284"
						},
						"Radius":20
					},
					"Icon":{
						"Image":"icons/school.svg",
						"Scale":"30px"
					},
					"Title":"Faculty and Student Studio",
					"Content":{
						"Type":"Rich Text",
						"Data":"[p]This is a description of the Faculty and Student Studio.[/p]"
					}
				},

				"7":{
					"Geometry":{
						"Position":{
							"x":"500",
							"y":"287"
						},
						"Radius":20
					},
					"Icon":{
						"Image":"icons/nature.svg",
						"Scale":"30px"
					},
					"Title":"Sacred Space",
					"Content":{
						"Type":"Rich Text",
						"Data":"[p]This is a description of the Sacred Space.[/p]"
					}
				},

				"8":{
					"Geometry":{
						"Position":{
							"x":"230",
							"y":"135"
						},
						"Radius":20
					},
					"Icon":{
						"Image":"icons/flower.svg",
						"Scale":"30px"
					},
					"Title":"Gift Garden",
					"Content":{
						"Type":"Rich Text",
						"Data":"[p]This is a description of the Gift Garden.[/p]"
					}
				},

				"9":{
					"Geometry":{
						"Position":{
							"x":"715",
							"y":"170"
						},
						"Radius":20
					},
					"Icon":{
						"Image":"icons/welcome.svg",
						"Scale":"30px"
					},
					"Title":"Entrance",
					"Content":{
						"Type":"Rich Text",
						"Data":"[p]This is a description of the entrance.[/p]"
					}
				}


			}
			

		}

	}
		
}