{
	"Name":"Visual Thinking",
	"Enabled":true,
	"Initialize":{
		"Script":"VisualThinking.js",
		"Function":"loadVisualThinking",
		"Template":"default"
	},
	"Configuration":{
		"Icon":"Default.svg",
		"Description":"[p]This inquiry-based learning activity can be used to highlight an image and provide a prompt so that the user can learn more about the things they find most interesting.[/p]",
		"Help":"Explore the media before reading the short descriptions about bullet points that pique your interest."
	}
}