{	
	"Activity":{
		"Type":"ImageComparison",
		"Audience":"Community",
		"Grouping":{
			"Section":"Shrub-Steppe",
			"Exhibit":"Hanford Reach"
		},
		"Configuration":{
			"Hidden":"true",
			"Theme":"air",
			"Accessibility":"true",
			"Subheader":"false"
		},
		"Info":{
			"Title":"Male Sockeye",
			"Preview":"chinooksockeye/chinook.png",
			"Description": "Male sockeye salmon look similar to female sockeye during the adult portion of their lifecycle spent at sea. Use the cursor and magnifying glass buttons to explore how male sockeye salmon bodies change in preparation for their return to freshwater spawning sites.",
			"Video":""
		}	
	},
	"Content":{
		"Configuration":{
			"Start Position":"0.05",
			"Images":{
				"Over":{
					"Image":"salmon/Sockeye - Male.png",
					"Header":"Adult",
					"Description":"Adult sockeye spend two to three years feeding in the open ocean in their silvery adult form before returning to the rivers and streams of their birth to spawn a new generation."
				},
				"Under":{
					"Image":"salmon/Sockeye - Breeding Male.png",
					"Header":"Spawning",
					"Description":"To prepare their bodies for spawning, male salmon release pigments that turn their skin a brilliant red color as well as grow in size and develop features like a hooked snout that make them more attractive to potential spawning partners."
				}
			}
			
		},
		"References":{
			"Configuration":{
				"Toggleable":false,
				"Fixed":true,
				"Invisible":false
			},
			"Tooltips":{
				"1":{
					"Geometry":{
						"Position":{
							"x":"280",
							"y":"210"
						}
					},
					"Title":"Body",
					"Content":{
						"Type":"Rich Text",
						"Data":"[p]In preparation for the return to their freshwater spawning grounds adult salmon release red pigments in their skin, transforming their bodies from the silvery sheen of their open ocean form to the brilliant scarlet of their spawning form.[/p]"
					}
				},
				"2":{
					"Geometry":{
						"Position":{
							"x":"380",
							"y":"150"
						}
					},
					"Title":"Humpback",
					"Content":{
						"Type":"Rich Text",
						"Data":"[p]Male sockeye salmon develop a large hump on their dorsal, or back, side in preparation for spawning.[/p]"
					}
				},
				"3":{
					"Geometry":{
						"Position":{
							"x":"80",
							"y":"160"
						}
					},
					"Title":"Kype",
					"Content":{
						"Type":"Rich Text",
						"Data":"[p]Male salmon have hooked jaws, while female salmon do not.  In preparation for spawning, this hook becomes even more pronounced, forming a structure called a “kype.” [/p]"
					}
				}
			}
			

		}

	}
		
}